^C:\USERS\САША\DOCUMENTS\VISUAL STUDIO 2013\PROJECTS\SOKOBAN\SOKOBAN\STDAFX.CPP
C:\USERS\Саша\DOCUMENTS\VISUAL STUDIO 2013\PROJECTS\SOKOBAN\SOKOBAN\DEBUG\SOKOBAN.PCH
C:\USERS\саша\DOCUMENTS\VISUAL STUDIO 2013\PROJECTS\SOKOBAN\SOKOBAN\DEBUG\VC120.PDB
C:\USERS\саша\DOCUMENTS\VISUAL STUDIO 2013\PROJECTS\SOKOBAN\SOKOBAN\DEBUG\VC120.IDB
C:\USERS\Саша\DOCUMENTS\VISUAL STUDIO 2013\PROJECTS\SOKOBAN\SOKOBAN\DEBUG\STDAFX.OBJ
^C:\USERS\САША\DOCUMENTS\VISUAL STUDIO 2013\PROJECTS\SOKOBAN\SOKOBAN\ACTOR.CPP|C:\USERS\САША\DOCUMENTS\VISUAL STUDIO 2013\PROJECTS\SOKOBAN\SOKOBAN\MATRIX.CPP|C:\USERS\САША\DOCUMENTS\VISUAL STUDIO 2013\PROJECTS\SOKOBAN\SOKOBAN\PLAYER.CPP|C:\USERS\САША\DOCUMENTS\VISUAL STUDIO 2013\PROJECTS\SOKOBAN\SOKOBAN\POINT.CPP|C:\USERS\САША\DOCUMENTS\VISUAL STUDIO 2013\PROJECTS\SOKOBAN\SOKOBAN\SOKOBAN.CPP
C:\USERS\саша\DOCUMENTS\VISUAL STUDIO 2013\PROJECTS\SOKOBAN\SOKOBAN\DEBUG\VC120.PDB
C:\USERS\саша\DOCUMENTS\VISUAL STUDIO 2013\PROJECTS\SOKOBAN\SOKOBAN\DEBUG\VC120.IDB
C:\USERS\Саша\DOCUMENTS\VISUAL STUDIO 2013\PROJECTS\SOKOBAN\SOKOBAN\DEBUG\SOKOBAN.OBJ
^C:\USERS\САША\DOCUMENTS\VISUAL STUDIO 2013\PROJECTS\SOKOBAN\SOKOBAN\ACTOR.CPP
C:\USERS\САША\DOCUMENTS\VISUAL STUDIO 2013\PROJECTS\SOKOBAN\SOKOBAN\DEBUG\VC120.PDB
^C:\USERS\САША\DOCUMENTS\VISUAL STUDIO 2013\PROJECTS\SOKOBAN\SOKOBAN\MATRIX.CPP
C:\USERS\САША\DOCUMENTS\VISUAL STUDIO 2013\PROJECTS\SOKOBAN\SOKOBAN\DEBUG\VC120.PDB
C:\USERS\саша\DOCUMENTS\VISUAL STUDIO 2013\PROJECTS\SOKOBAN\SOKOBAN\DEBUG\VC120.IDB
C:\USERS\Саша\DOCUMENTS\VISUAL STUDIO 2013\PROJECTS\SOKOBAN\SOKOBAN\DEBUG\MATRIX.OBJ
^C:\USERS\САША\DOCUMENTS\VISUAL STUDIO 2013\PROJECTS\SOKOBAN\SOKOBAN\PLAYER.CPP
C:\USERS\САША\DOCUMENTS\VISUAL STUDIO 2013\PROJECTS\SOKOBAN\SOKOBAN\DEBUG\VC120.PDB
C:\USERS\саша\DOCUMENTS\VISUAL STUDIO 2013\PROJECTS\SOKOBAN\SOKOBAN\DEBUG\VC120.IDB
C:\USERS\Саша\DOCUMENTS\VISUAL STUDIO 2013\PROJECTS\SOKOBAN\SOKOBAN\DEBUG\PLAYER.OBJ
^C:\USERS\САША\DOCUMENTS\VISUAL STUDIO 2013\PROJECTS\SOKOBAN\SOKOBAN\POINT.CPP
C:\USERS\САША\DOCUMENTS\VISUAL STUDIO 2013\PROJECTS\SOKOBAN\SOKOBAN\DEBUG\VC120.PDB
C:\USERS\саша\DOCUMENTS\VISUAL STUDIO 2013\PROJECTS\SOKOBAN\SOKOBAN\DEBUG\VC120.IDB
C:\USERS\Саша\DOCUMENTS\VISUAL STUDIO 2013\PROJECTS\SOKOBAN\SOKOBAN\DEBUG\POINT.OBJ
^C:\USERS\САША\DOCUMENTS\VISUAL STUDIO 2013\PROJECTS\SOKOBAN\SOKOBAN\SOKOBAN.CPP
C:\USERS\САША\DOCUMENTS\VISUAL STUDIO 2013\PROJECTS\SOKOBAN\SOKOBAN\DEBUG\VC120.PDB
C:\USERS\саша\DOCUMENTS\VISUAL STUDIO 2013\PROJECTS\SOKOBAN\SOKOBAN\DEBUG\VC120.IDB
^C:\USERS\САША\DOCUMENTS\VISUAL STUDIO 2013\PROJECTS\SOKOBAN\SOKOBAN\ACTOR.CPP|C:\USERS\САША\DOCUMENTS\VISUAL STUDIO 2013\PROJECTS\SOKOBAN\SOKOBAN\BOX.CPP|C:\USERS\САША\DOCUMENTS\VISUAL STUDIO 2013\PROJECTS\SOKOBAN\SOKOBAN\MATRIX.CPP|C:\USERS\САША\DOCUMENTS\VISUAL STUDIO 2013\PROJECTS\SOKOBAN\SOKOBAN\PLAYER.CPP|C:\USERS\САША\DOCUMENTS\VISUAL STUDIO 2013\PROJECTS\SOKOBAN\SOKOBAN\POINT.CPP|C:\USERS\САША\DOCUMENTS\VISUAL STUDIO 2013\PROJECTS\SOKOBAN\SOKOBAN\SCENE.CPP|C:\USERS\САША\DOCUMENTS\VISUAL STUDIO 2013\PROJECTS\SOKOBAN\SOKOBAN\SOKOBAN.CPP
C:\USERS\саша\DOCUMENTS\VISUAL STUDIO 2013\PROJECTS\SOKOBAN\SOKOBAN\DEBUG\VC120.PDB
C:\USERS\саша\DOCUMENTS\VISUAL STUDIO 2013\PROJECTS\SOKOBAN\SOKOBAN\DEBUG\VC120.IDB
C:\USERS\Саша\DOCUMENTS\VISUAL STUDIO 2013\PROJECTS\SOKOBAN\SOKOBAN\DEBUG\SOKOBAN.OBJ
^C:\USERS\САША\DOCUMENTS\VISUAL STUDIO 2013\PROJECTS\SOKOBAN\SOKOBAN\BOX.CPP
C:\USERS\САША\DOCUMENTS\VISUAL STUDIO 2013\PROJECTS\SOKOBAN\SOKOBAN\DEBUG\VC120.PDB
C:\USERS\саша\DOCUMENTS\VISUAL STUDIO 2013\PROJECTS\SOKOBAN\SOKOBAN\DEBUG\VC120.IDB
C:\USERS\Саша\DOCUMENTS\VISUAL STUDIO 2013\PROJECTS\SOKOBAN\SOKOBAN\DEBUG\BOX.OBJ
^C:\USERS\САША\DOCUMENTS\VISUAL STUDIO 2013\PROJECTS\SOKOBAN\SOKOBAN\SCENE.CPP
C:\USERS\САША\DOCUMENTS\VISUAL STUDIO 2013\PROJECTS\SOKOBAN\SOKOBAN\DEBUG\VC120.PDB
C:\USERS\саша\DOCUMENTS\VISUAL STUDIO 2013\PROJECTS\SOKOBAN\SOKOBAN\DEBUG\VC120.IDB
C:\USERS\Саша\DOCUMENTS\VISUAL STUDIO 2013\PROJECTS\SOKOBAN\SOKOBAN\DEBUG\SCENE.OBJ
^C:\USERS\САША\DOCUMENTS\VISUAL STUDIO 2013\PROJECTS\SOKOBAN\SOKOBAN\ACTOR.CPP|C:\USERS\САША\DOCUMENTS\VISUAL STUDIO 2013\PROJECTS\SOKOBAN\SOKOBAN\BOX.CPP|C:\USERS\САША\DOCUMENTS\VISUAL STUDIO 2013\PROJECTS\SOKOBAN\SOKOBAN\MATRIX.CPP|C:\USERS\САША\DOCUMENTS\VISUAL STUDIO 2013\PROJECTS\SOKOBAN\SOKOBAN\PLAYER.CPP|C:\USERS\САША\DOCUMENTS\VISUAL STUDIO 2013\PROJECTS\SOKOBAN\SOKOBAN\POINT.CPP|C:\USERS\САША\DOCUMENTS\VISUAL STUDIO 2013\PROJECTS\SOKOBAN\SOKOBAN\SCENE.CPP
C:\USERS\саша\DOCUMENTS\VISUAL STUDIO 2013\PROJECTS\SOKOBAN\SOKOBAN\DEBUG\VC120.PDB
C:\USERS\саша\DOCUMENTS\VISUAL STUDIO 2013\PROJECTS\SOKOBAN\SOKOBAN\DEBUG\VC120.IDB
C:\USERS\Саша\DOCUMENTS\VISUAL STUDIO 2013\PROJECTS\SOKOBAN\SOKOBAN\DEBUG\MATRIX.OBJ
^C:\USERS\САША\DOCUMENTS\VISUAL STUDIO 2013\PROJECTS\SOKOBAN\SOKOBAN\ACTOR.CPP|C:\USERS\САША\DOCUMENTS\VISUAL STUDIO 2013\PROJECTS\SOKOBAN\SOKOBAN\BOX.CPP|C:\USERS\САША\DOCUMENTS\VISUAL STUDIO 2013\PROJECTS\SOKOBAN\SOKOBAN\PLAYER.CPP|C:\USERS\САША\DOCUMENTS\VISUAL STUDIO 2013\PROJECTS\SOKOBAN\SOKOBAN\POINT.CPP|C:\USERS\САША\DOCUMENTS\VISUAL STUDIO 2013\PROJECTS\SOKOBAN\SOKOBAN\SCENE.CPP
C:\USERS\саша\DOCUMENTS\VISUAL STUDIO 2013\PROJECTS\SOKOBAN\SOKOBAN\DEBUG\VC120.PDB
C:\USERS\саша\DOCUMENTS\VISUAL STUDIO 2013\PROJECTS\SOKOBAN\SOKOBAN\DEBUG\VC120.IDB
C:\USERS\Саша\DOCUMENTS\VISUAL STUDIO 2013\PROJECTS\SOKOBAN\SOKOBAN\DEBUG\POINT.OBJ
C:\USERS\Саша\DOCUMENTS\VISUAL STUDIO 2013\PROJECTS\SOKOBAN\SOKOBAN\DEBUG\PLAYER.OBJ
C:\USERS\Саша\DOCUMENTS\VISUAL STUDIO 2013\PROJECTS\SOKOBAN\SOKOBAN\DEBUG\SCENE.OBJ
C:\USERS\Саша\DOCUMENTS\VISUAL STUDIO 2013\PROJECTS\SOKOBAN\SOKOBAN\DEBUG\ACTOR.OBJ
C:\USERS\Саша\DOCUMENTS\VISUAL STUDIO 2013\PROJECTS\SOKOBAN\SOKOBAN\DEBUG\BOX.OBJ
^C:\USERS\САША\DOCUMENTS\VISUAL STUDIO 2013\PROJECTS\SOKOBAN\SOKOBAN\ACTOR.CPP|C:\USERS\САША\DOCUMENTS\VISUAL STUDIO 2013\PROJECTS\SOKOBAN\SOKOBAN\BOX.CPP|C:\USERS\САША\DOCUMENTS\VISUAL STUDIO 2013\PROJECTS\SOKOBAN\SOKOBAN\PLAYER.CPP|C:\USERS\САША\DOCUMENTS\VISUAL STUDIO 2013\PROJECTS\SOKOBAN\SOKOBAN\SCENE.CPP
C:\USERS\саша\DOCUMENTS\VISUAL STUDIO 2013\PROJECTS\SOKOBAN\SOKOBAN\DEBUG\VC120.PDB
C:\USERS\саша\DOCUMENTS\VISUAL STUDIO 2013\PROJECTS\SOKOBAN\SOKOBAN\DEBUG\VC120.IDB
^C:\USERS\САША\DOCUMENTS\VISUAL STUDIO 2013\PROJECTS\SOKOBAN\SOKOBAN\ACTOR.CPP|C:\USERS\САША\DOCUMENTS\VISUAL STUDIO 2013\PROJECTS\SOKOBAN\SOKOBAN\BOX.CPP
C:\USERS\саша\DOCUMENTS\VISUAL STUDIO 2013\PROJECTS\SOKOBAN\SOKOBAN\DEBUG\VC120.PDB
C:\USERS\саша\DOCUMENTS\VISUAL STUDIO 2013\PROJECTS\SOKOBAN\SOKOBAN\DEBUG\VC120.IDB
C:\USERS\Саша\DOCUMENTS\VISUAL STUDIO 2013\PROJECTS\SOKOBAN\SOKOBAN\DEBUG\ACTOR.OBJ
C:\USERS\Саша\DOCUMENTS\VISUAL STUDIO 2013\PROJECTS\SOKOBAN\SOKOBAN\DEBUG\BOX.OBJ
^C:\USERS\САША\DOCUMENTS\VISUAL STUDIO 2013\PROJECTS\SOKOBAN\SOKOBAN\ACTOR.CPP|C:\USERS\САША\DOCUMENTS\VISUAL STUDIO 2013\PROJECTS\SOKOBAN\SOKOBAN\BOX.CPP|C:\USERS\САША\DOCUMENTS\VISUAL STUDIO 2013\PROJECTS\SOKOBAN\SOKOBAN\MATRIX.CPP|C:\USERS\САША\DOCUMENTS\VISUAL STUDIO 2013\PROJECTS\SOKOBAN\SOKOBAN\PLAYER.CPP|C:\USERS\САША\DOCUMENTS\VISUAL STUDIO 2013\PROJECTS\SOKOBAN\SOKOBAN\SCENE.CPP
C:\USERS\саша\DOCUMENTS\VISUAL STUDIO 2013\PROJECTS\SOKOBAN\SOKOBAN\DEBUG\VC120.PDB
C:\USERS\саша\DOCUMENTS\VISUAL STUDIO 2013\PROJECTS\SOKOBAN\SOKOBAN\DEBUG\VC120.IDB
C:\USERS\Саша\DOCUMENTS\VISUAL STUDIO 2013\PROJECTS\SOKOBAN\SOKOBAN\DEBUG\MATRIX.OBJ
^C:\USERS\САША\DOCUMENTS\VISUAL STUDIO 2013\PROJECTS\SOKOBAN\SOKOBAN\MATRIX.CPP|C:\USERS\САША\DOCUMENTS\VISUAL STUDIO 2013\PROJECTS\SOKOBAN\SOKOBAN\SOKOBAN.CPP
C:\USERS\саша\DOCUMENTS\VISUAL STUDIO 2013\PROJECTS\SOKOBAN\SOKOBAN\DEBUG\VC120.PDB
C:\USERS\саша\DOCUMENTS\VISUAL STUDIO 2013\PROJECTS\SOKOBAN\SOKOBAN\DEBUG\VC120.IDB
C:\USERS\Саша\DOCUMENTS\VISUAL STUDIO 2013\PROJECTS\SOKOBAN\SOKOBAN\DEBUG\MATRIX.OBJ
C:\USERS\Саша\DOCUMENTS\VISUAL STUDIO 2013\PROJECTS\SOKOBAN\SOKOBAN\DEBUG\SOKOBAN.OBJ
^C:\USERS\САША\DOCUMENTS\VISUAL STUDIO 2013\PROJECTS\SOKOBAN\SOKOBAN\ACTOR.CPP|C:\USERS\САША\DOCUMENTS\VISUAL STUDIO 2013\PROJECTS\SOKOBAN\SOKOBAN\BOX.CPP|C:\USERS\САША\DOCUMENTS\VISUAL STUDIO 2013\PROJECTS\SOKOBAN\SOKOBAN\MATRIX.CPP|C:\USERS\САША\DOCUMENTS\VISUAL STUDIO 2013\PROJECTS\SOKOBAN\SOKOBAN\PLAYER.CPP|C:\USERS\САША\DOCUMENTS\VISUAL STUDIO 2013\PROJECTS\SOKOBAN\SOKOBAN\SCENE.CPP|C:\USERS\САША\DOCUMENTS\VISUAL STUDIO 2013\PROJECTS\SOKOBAN\SOKOBAN\SOKOBAN.CPP
C:\USERS\саша\DOCUMENTS\VISUAL STUDIO 2013\PROJECTS\SOKOBAN\SOKOBAN\DEBUG\VC120.PDB
C:\USERS\саша\DOCUMENTS\VISUAL STUDIO 2013\PROJECTS\SOKOBAN\SOKOBAN\DEBUG\VC120.IDB
C:\USERS\Саша\DOCUMENTS\VISUAL STUDIO 2013\PROJECTS\SOKOBAN\SOKOBAN\DEBUG\SCENE.OBJ
C:\USERS\Саша\DOCUMENTS\VISUAL STUDIO 2013\PROJECTS\SOKOBAN\SOKOBAN\DEBUG\SOKOBAN.OBJ
C:\USERS\Саша\DOCUMENTS\VISUAL STUDIO 2013\PROJECTS\SOKOBAN\SOKOBAN\DEBUG\ACTOR.OBJ
C:\USERS\Саша\DOCUMENTS\VISUAL STUDIO 2013\PROJECTS\SOKOBAN\SOKOBAN\DEBUG\BOX.OBJ
C:\USERS\Саша\DOCUMENTS\VISUAL STUDIO 2013\PROJECTS\SOKOBAN\SOKOBAN\DEBUG\MATRIX.OBJ
C:\USERS\Саша\DOCUMENTS\VISUAL STUDIO 2013\PROJECTS\SOKOBAN\SOKOBAN\DEBUG\PLAYER.OBJ
^C:\USERS\САША\DOCUMENTS\VISUAL STUDIO 2013\PROJECTS\SOKOBAN\SOKOBAN\SCENE.CPP|C:\USERS\САША\DOCUMENTS\VISUAL STUDIO 2013\PROJECTS\SOKOBAN\SOKOBAN\SOKOBAN.CPP
C:\USERS\саша\DOCUMENTS\VISUAL STUDIO 2013\PROJECTS\SOKOBAN\SOKOBAN\DEBUG\VC120.PDB
C:\USERS\саша\DOCUMENTS\VISUAL STUDIO 2013\PROJECTS\SOKOBAN\SOKOBAN\DEBUG\VC120.IDB
C:\USERS\Саша\DOCUMENTS\VISUAL STUDIO 2013\PROJECTS\SOKOBAN\SOKOBAN\DEBUG\SOKOBAN.OBJ
C:\USERS\Саша\DOCUMENTS\VISUAL STUDIO 2013\PROJECTS\SOKOBAN\SOKOBAN\DEBUG\SCENE.OBJ
^C:\USERS\САША\DOCUMENTS\VISUAL STUDIO 2013\PROJECTS\SOKOBAN\SOKOBAN\MATRIX.CPP|C:\USERS\САША\DOCUMENTS\VISUAL STUDIO 2013\PROJECTS\SOKOBAN\SOKOBAN\SCENE.CPP
C:\USERS\саша\DOCUMENTS\VISUAL STUDIO 2013\PROJECTS\SOKOBAN\SOKOBAN\DEBUG\VC120.PDB
C:\USERS\саша\DOCUMENTS\VISUAL STUDIO 2013\PROJECTS\SOKOBAN\SOKOBAN\DEBUG\VC120.IDB
C:\USERS\Саша\DOCUMENTS\VISUAL STUDIO 2013\PROJECTS\SOKOBAN\SOKOBAN\DEBUG\MATRIX.OBJ
C:\USERS\Саша\DOCUMENTS\VISUAL STUDIO 2013\PROJECTS\SOKOBAN\SOKOBAN\DEBUG\SCENE.OBJ
^C:\USERS\САША\DOCUMENTS\VISUAL STUDIO 2013\PROJECTS\SOKOBAN\SOKOBAN\ACTOR.CPP|C:\USERS\САША\DOCUMENTS\VISUAL STUDIO 2013\PROJECTS\SOKOBAN\SOKOBAN\BOX.CPP|C:\USERS\САША\DOCUMENTS\VISUAL STUDIO 2013\PROJECTS\SOKOBAN\SOKOBAN\CONTROL.CPP|C:\USERS\САША\DOCUMENTS\VISUAL STUDIO 2013\PROJECTS\SOKOBAN\SOKOBAN\DOT.CPP|C:\USERS\САША\DOCUMENTS\VISUAL STUDIO 2013\PROJECTS\SOKOBAN\SOKOBAN\MATRIX.CPP|C:\USERS\САША\DOCUMENTS\VISUAL STUDIO 2013\PROJECTS\SOKOBAN\SOKOBAN\PLAYER.CPP|C:\USERS\САША\DOCUMENTS\VISUAL STUDIO 2013\PROJECTS\SOKOBAN\SOKOBAN\POINT.CPP|C:\USERS\САША\DOCUMENTS\VISUAL STUDIO 2013\PROJECTS\SOKOBAN\SOKOBAN\SCENE.CPP|C:\USERS\САША\DOCUMENTS\VISUAL STUDIO 2013\PROJECTS\SOKOBAN\SOKOBAN\SOKOBAN.CPP
C:\USERS\саша\DOCUMENTS\VISUAL STUDIO 2013\PROJECTS\SOKOBAN\SOKOBAN\DEBUG\VC120.PDB
C:\USERS\саша\DOCUMENTS\VISUAL STUDIO 2013\PROJECTS\SOKOBAN\SOKOBAN\DEBUG\VC120.IDB
C:\USERS\Саша\DOCUMENTS\VISUAL STUDIO 2013\PROJECTS\SOKOBAN\SOKOBAN\DEBUG\ACTOR.OBJ
C:\USERS\Саша\DOCUMENTS\VISUAL STUDIO 2013\PROJECTS\SOKOBAN\SOKOBAN\DEBUG\BOX.OBJ
C:\USERS\Саша\DOCUMENTS\VISUAL STUDIO 2013\PROJECTS\SOKOBAN\SOKOBAN\DEBUG\CONTROL.OBJ
C:\USERS\Саша\DOCUMENTS\VISUAL STUDIO 2013\PROJECTS\SOKOBAN\SOKOBAN\DEBUG\MATRIX.OBJ
C:\USERS\Саша\DOCUMENTS\VISUAL STUDIO 2013\PROJECTS\SOKOBAN\SOKOBAN\DEBUG\PLAYER.OBJ
C:\USERS\Саша\DOCUMENTS\VISUAL STUDIO 2013\PROJECTS\SOKOBAN\SOKOBAN\DEBUG\POINT.OBJ
C:\USERS\Саша\DOCUMENTS\VISUAL STUDIO 2013\PROJECTS\SOKOBAN\SOKOBAN\DEBUG\SCENE.OBJ
C:\USERS\Саша\DOCUMENTS\VISUAL STUDIO 2013\PROJECTS\SOKOBAN\SOKOBAN\DEBUG\SOKOBAN.OBJ
^C:\USERS\САША\DOCUMENTS\VISUAL STUDIO 2013\PROJECTS\SOKOBAN\SOKOBAN\CONTROL.CPP
C:\USERS\САША\DOCUMENTS\VISUAL STUDIO 2013\PROJECTS\SOKOBAN\SOKOBAN\DEBUG\VC120.PDB
^C:\USERS\САША\DOCUMENTS\VISUAL STUDIO 2013\PROJECTS\SOKOBAN\SOKOBAN\DOT.CPP
C:\USERS\САША\DOCUMENTS\VISUAL STUDIO 2013\PROJECTS\SOKOBAN\SOKOBAN\DEBUG\VC120.PDB
C:\USERS\саша\DOCUMENTS\VISUAL STUDIO 2013\PROJECTS\SOKOBAN\SOKOBAN\DEBUG\VC120.IDB
C:\USERS\Саша\DOCUMENTS\VISUAL STUDIO 2013\PROJECTS\SOKOBAN\SOKOBAN\DEBUG\DOT.OBJ
^C:\USERS\САША\DOCUMENTS\VISUAL STUDIO 2013\PROJECTS\SOKOBAN\SOKOBAN\ACTOR.CPP|C:\USERS\САША\DOCUMENTS\VISUAL STUDIO 2013\PROJECTS\SOKOBAN\SOKOBAN\BOX.CPP|C:\USERS\САША\DOCUMENTS\VISUAL STUDIO 2013\PROJECTS\SOKOBAN\SOKOBAN\DOT.CPP|C:\USERS\САША\DOCUMENTS\VISUAL STUDIO 2013\PROJECTS\SOKOBAN\SOKOBAN\PLAYER.CPP|C:\USERS\САША\DOCUMENTS\VISUAL STUDIO 2013\PROJECTS\SOKOBAN\SOKOBAN\SCENE.CPP|C:\USERS\САША\DOCUMENTS\VISUAL STUDIO 2013\PROJECTS\SOKOBAN\SOKOBAN\SOKOBAN.CPP
C:\USERS\саша\DOCUMENTS\VISUAL STUDIO 2013\PROJECTS\SOKOBAN\SOKOBAN\DEBUG\VC120.PDB
C:\USERS\саша\DOCUMENTS\VISUAL STUDIO 2013\PROJECTS\SOKOBAN\SOKOBAN\DEBUG\VC120.IDB
C:\USERS\Саша\DOCUMENTS\VISUAL STUDIO 2013\PROJECTS\SOKOBAN\SOKOBAN\DEBUG\ACTOR.OBJ
C:\USERS\Саша\DOCUMENTS\VISUAL STUDIO 2013\PROJECTS\SOKOBAN\SOKOBAN\DEBUG\BOX.OBJ
C:\USERS\Саша\DOCUMENTS\VISUAL STUDIO 2013\PROJECTS\SOKOBAN\SOKOBAN\DEBUG\DOT.OBJ
C:\USERS\Саша\DOCUMENTS\VISUAL STUDIO 2013\PROJECTS\SOKOBAN\SOKOBAN\DEBUG\SCENE.OBJ
C:\USERS\Саша\DOCUMENTS\VISUAL STUDIO 2013\PROJECTS\SOKOBAN\SOKOBAN\DEBUG\SOKOBAN.OBJ
^C:\USERS\САША\DOCUMENTS\VISUAL STUDIO 2013\PROJECTS\SOKOBAN\SOKOBAN\PLAYER.CPP|C:\USERS\САША\DOCUMENTS\VISUAL STUDIO 2013\PROJECTS\SOKOBAN\SOKOBAN\SCENE.CPP
C:\USERS\саша\DOCUMENTS\VISUAL STUDIO 2013\PROJECTS\SOKOBAN\SOKOBAN\DEBUG\VC120.PDB
C:\USERS\саша\DOCUMENTS\VISUAL STUDIO 2013\PROJECTS\SOKOBAN\SOKOBAN\DEBUG\VC120.IDB
C:\USERS\Саша\DOCUMENTS\VISUAL STUDIO 2013\PROJECTS\SOKOBAN\SOKOBAN\DEBUG\PLAYER.OBJ
C:\USERS\Саша\DOCUMENTS\VISUAL STUDIO 2013\PROJECTS\SOKOBAN\SOKOBAN\DEBUG\SCENE.OBJ
^C:\USERS\САША\DOCUMENTS\VISUAL STUDIO 2013\PROJECTS\SOKOBAN\SOKOBAN\DOT.CPP|C:\USERS\САША\DOCUMENTS\VISUAL STUDIO 2013\PROJECTS\SOKOBAN\SOKOBAN\PLAYER.CPP
C:\USERS\саша\DOCUMENTS\VISUAL STUDIO 2013\PROJECTS\SOKOBAN\SOKOBAN\DEBUG\VC120.PDB
C:\USERS\саша\DOCUMENTS\VISUAL STUDIO 2013\PROJECTS\SOKOBAN\SOKOBAN\DEBUG\VC120.IDB
C:\USERS\Саша\DOCUMENTS\VISUAL STUDIO 2013\PROJECTS\SOKOBAN\SOKOBAN\DEBUG\DOT.OBJ
C:\USERS\Саша\DOCUMENTS\VISUAL STUDIO 2013\PROJECTS\SOKOBAN\SOKOBAN\DEBUG\PLAYER.OBJ
^C:\USERS\САША\DOCUMENTS\VISUAL STUDIO 2013\PROJECTS\SOKOBAN\SOKOBAN\PLAYER.CPP|C:\USERS\САША\DOCUMENTS\VISUAL STUDIO 2013\PROJECTS\SOKOBAN\SOKOBAN\SOKOBAN.CPP
C:\USERS\саша\DOCUMENTS\VISUAL STUDIO 2013\PROJECTS\SOKOBAN\SOKOBAN\DEBUG\VC120.PDB
C:\USERS\саша\DOCUMENTS\VISUAL STUDIO 2013\PROJECTS\SOKOBAN\SOKOBAN\DEBUG\VC120.IDB
C:\USERS\Саша\DOCUMENTS\VISUAL STUDIO 2013\PROJECTS\SOKOBAN\SOKOBAN\DEBUG\PLAYER.OBJ
C:\USERS\Саша\DOCUMENTS\VISUAL STUDIO 2013\PROJECTS\SOKOBAN\SOKOBAN\DEBUG\SOKOBAN.OBJ
^C:\USERS\САША\DOCUMENTS\VISUAL STUDIO 2013\PROJECTS\SOKOBAN\SOKOBAN\POINT.CPP|C:\USERS\САША\DOCUMENTS\VISUAL STUDIO 2013\PROJECTS\SOKOBAN\SOKOBAN\SCENE.CPP
C:\USERS\саша\DOCUMENTS\VISUAL STUDIO 2013\PROJECTS\SOKOBAN\SOKOBAN\DEBUG\VC120.PDB
C:\USERS\саша\DOCUMENTS\VISUAL STUDIO 2013\PROJECTS\SOKOBAN\SOKOBAN\DEBUG\VC120.IDB
C:\USERS\Саша\DOCUMENTS\VISUAL STUDIO 2013\PROJECTS\SOKOBAN\SOKOBAN\DEBUG\POINT.OBJ
C:\USERS\Саша\DOCUMENTS\VISUAL STUDIO 2013\PROJECTS\SOKOBAN\SOKOBAN\DEBUG\SCENE.OBJ
^C:\USERS\САША\DOCUMENTS\VISUAL STUDIO 2013\PROJECTS\SOKOBAN\SOKOBAN\BOX.CPP|C:\USERS\САША\DOCUMENTS\VISUAL STUDIO 2013\PROJECTS\SOKOBAN\SOKOBAN\PLAYER.CPP
C:\USERS\саша\DOCUMENTS\VISUAL STUDIO 2013\PROJECTS\SOKOBAN\SOKOBAN\DEBUG\VC120.PDB
C:\USERS\саша\DOCUMENTS\VISUAL STUDIO 2013\PROJECTS\SOKOBAN\SOKOBAN\DEBUG\VC120.IDB
C:\USERS\Саша\DOCUMENTS\VISUAL STUDIO 2013\PROJECTS\SOKOBAN\SOKOBAN\DEBUG\BOX.OBJ
C:\USERS\Саша\DOCUMENTS\VISUAL STUDIO 2013\PROJECTS\SOKOBAN\SOKOBAN\DEBUG\PLAYER.OBJ
^C:\USERS\САША\DOCUMENTS\VISUAL STUDIO 2013\PROJECTS\SOKOBAN\SOKOBAN\BOX.CPP|C:\USERS\САША\DOCUMENTS\VISUAL STUDIO 2013\PROJECTS\SOKOBAN\SOKOBAN\SCENE.CPP
C:\USERS\саша\DOCUMENTS\VISUAL STUDIO 2013\PROJECTS\SOKOBAN\SOKOBAN\DEBUG\VC120.PDB
C:\USERS\саша\DOCUMENTS\VISUAL STUDIO 2013\PROJECTS\SOKOBAN\SOKOBAN\DEBUG\VC120.IDB
C:\USERS\Саша\DOCUMENTS\VISUAL STUDIO 2013\PROJECTS\SOKOBAN\SOKOBAN\DEBUG\SCENE.OBJ
^C:\USERS\САША\DOCUMENTS\VISUAL STUDIO 2013\PROJECTS\SOKOBAN\SOKOBAN\BOX.CPP|C:\USERS\САША\DOCUMENTS\VISUAL STUDIO 2013\PROJECTS\SOKOBAN\SOKOBAN\PLAYER.CPP|C:\USERS\САША\DOCUMENTS\VISUAL STUDIO 2013\PROJECTS\SOKOBAN\SOKOBAN\SCENE.CPP|C:\USERS\САША\DOCUMENTS\VISUAL STUDIO 2013\PROJECTS\SOKOBAN\SOKOBAN\SOKOBAN.CPP
C:\USERS\саша\DOCUMENTS\VISUAL STUDIO 2013\PROJECTS\SOKOBAN\SOKOBAN\DEBUG\VC120.PDB
C:\USERS\саша\DOCUMENTS\VISUAL STUDIO 2013\PROJECTS\SOKOBAN\SOKOBAN\DEBUG\VC120.IDB
C:\USERS\Саша\DOCUMENTS\VISUAL STUDIO 2013\PROJECTS\SOKOBAN\SOKOBAN\DEBUG\BOX.OBJ
C:\USERS\Саша\DOCUMENTS\VISUAL STUDIO 2013\PROJECTS\SOKOBAN\SOKOBAN\DEBUG\PLAYER.OBJ
C:\USERS\Саша\DOCUMENTS\VISUAL STUDIO 2013\PROJECTS\SOKOBAN\SOKOBAN\DEBUG\SCENE.OBJ
C:\USERS\Саша\DOCUMENTS\VISUAL STUDIO 2013\PROJECTS\SOKOBAN\SOKOBAN\DEBUG\SOKOBAN.OBJ
^C:\USERS\САША\DOCUMENTS\VISUAL STUDIO 2013\PROJECTS\SOKOBAN\SOKOBAN\GAME.CPP|C:\USERS\САША\DOCUMENTS\VISUAL STUDIO 2013\PROJECTS\SOKOBAN\SOKOBAN\SOKOBAN.CPP
C:\USERS\саша\DOCUMENTS\VISUAL STUDIO 2013\PROJECTS\SOKOBAN\SOKOBAN\DEBUG\VC120.PDB
C:\USERS\саша\DOCUMENTS\VISUAL STUDIO 2013\PROJECTS\SOKOBAN\SOKOBAN\DEBUG\VC120.IDB
C:\USERS\Саша\DOCUMENTS\VISUAL STUDIO 2013\PROJECTS\SOKOBAN\SOKOBAN\DEBUG\GAME.OBJ
C:\USERS\Саша\DOCUMENTS\VISUAL STUDIO 2013\PROJECTS\SOKOBAN\SOKOBAN\DEBUG\SOKOBAN.OBJ
^C:\USERS\САША\DOCUMENTS\VISUAL STUDIO 2013\PROJECTS\SOKOBAN\SOKOBAN\GAME.CPP
C:\USERS\САША\DOCUMENTS\VISUAL STUDIO 2013\PROJECTS\SOKOBAN\SOKOBAN\DEBUG\VC120.PDB
C:\USERS\саша\DOCUMENTS\VISUAL STUDIO 2013\PROJECTS\SOKOBAN\SOKOBAN\DEBUG\VC120.IDB
^C:\USERS\САША\DOCUMENTS\VISUAL STUDIO 2013\PROJECTS\SOKOBAN\SOKOBAN\GAME.CPP|C:\USERS\САША\DOCUMENTS\VISUAL STUDIO 2013\PROJECTS\SOKOBAN\SOKOBAN\SCENE.CPP|C:\USERS\САША\DOCUMENTS\VISUAL STUDIO 2013\PROJECTS\SOKOBAN\SOKOBAN\SOKOBAN.CPP
C:\USERS\саша\DOCUMENTS\VISUAL STUDIO 2013\PROJECTS\SOKOBAN\SOKOBAN\DEBUG\VC120.PDB
C:\USERS\саша\DOCUMENTS\VISUAL STUDIO 2013\PROJECTS\SOKOBAN\SOKOBAN\DEBUG\VC120.IDB
C:\USERS\Саша\DOCUMENTS\VISUAL STUDIO 2013\PROJECTS\SOKOBAN\SOKOBAN\DEBUG\GAME.OBJ
C:\USERS\Саша\DOCUMENTS\VISUAL STUDIO 2013\PROJECTS\SOKOBAN\SOKOBAN\DEBUG\SCENE.OBJ
C:\USERS\Саша\DOCUMENTS\VISUAL STUDIO 2013\PROJECTS\SOKOBAN\SOKOBAN\DEBUG\SOKOBAN.OBJ
^C:\USERS\САША\DOCUMENTS\VISUAL STUDIO 2013\PROJECTS\SOKOBAN\SOKOBAN\GAME.CPP|C:\USERS\САША\DOCUMENTS\VISUAL STUDIO 2013\PROJECTS\SOKOBAN\SOKOBAN\SCENE.CPP
C:\USERS\саша\DOCUMENTS\VISUAL STUDIO 2013\PROJECTS\SOKOBAN\SOKOBAN\DEBUG\VC120.PDB
C:\USERS\саша\DOCUMENTS\VISUAL STUDIO 2013\PROJECTS\SOKOBAN\SOKOBAN\DEBUG\VC120.IDB
C:\USERS\Саша\DOCUMENTS\VISUAL STUDIO 2013\PROJECTS\SOKOBAN\SOKOBAN\DEBUG\GAME.OBJ
C:\USERS\Саша\DOCUMENTS\VISUAL STUDIO 2013\PROJECTS\SOKOBAN\SOKOBAN\DEBUG\SCENE.OBJ
^C:\USERS\САША\DOCUMENTS\VISUAL STUDIO 2013\PROJECTS\SOKOBAN\SOKOBAN\GAME.CPP|C:\USERS\САША\DOCUMENTS\VISUAL STUDIO 2013\PROJECTS\SOKOBAN\SOKOBAN\PLAYER.CPP
C:\USERS\саша\DOCUMENTS\VISUAL STUDIO 2013\PROJECTS\SOKOBAN\SOKOBAN\DEBUG\VC120.PDB
C:\USERS\саша\DOCUMENTS\VISUAL STUDIO 2013\PROJECTS\SOKOBAN\SOKOBAN\DEBUG\VC120.IDB
C:\USERS\Саша\DOCUMENTS\VISUAL STUDIO 2013\PROJECTS\SOKOBAN\SOKOBAN\DEBUG\GAME.OBJ
C:\USERS\Саша\DOCUMENTS\VISUAL STUDIO 2013\PROJECTS\SOKOBAN\SOKOBAN\DEBUG\PLAYER.OBJ
