^C:\USERS\САША\DOCUMENTS\VISUAL STUDIO 2013\PROJECTS\SOKOBAN\SOKOBAN\DEBUG\ACTOR.OBJ|C:\USERS\САША\DOCUMENTS\VISUAL STUDIO 2013\PROJECTS\SOKOBAN\SOKOBAN\DEBUG\BOX.OBJ|C:\USERS\САША\DOCUMENTS\VISUAL STUDIO 2013\PROJECTS\SOKOBAN\SOKOBAN\DEBUG\DOT.OBJ|C:\USERS\САША\DOCUMENTS\VISUAL STUDIO 2013\PROJECTS\SOKOBAN\SOKOBAN\DEBUG\GAME.OBJ|C:\USERS\САША\DOCUMENTS\VISUAL STUDIO 2013\PROJECTS\SOKOBAN\SOKOBAN\DEBUG\MATRIX.OBJ|C:\USERS\САША\DOCUMENTS\VISUAL STUDIO 2013\PROJECTS\SOKOBAN\SOKOBAN\DEBUG\PLAYER.OBJ|C:\USERS\САША\DOCUMENTS\VISUAL STUDIO 2013\PROJECTS\SOKOBAN\SOKOBAN\DEBUG\POINT.OBJ|C:\USERS\САША\DOCUMENTS\VISUAL STUDIO 2013\PROJECTS\SOKOBAN\SOKOBAN\DEBUG\SCENE.OBJ|C:\USERS\САША\DOCUMENTS\VISUAL STUDIO 2013\PROJECTS\SOKOBAN\SOKOBAN\DEBUG\SOKOBAN.OBJ|C:\USERS\САША\DOCUMENTS\VISUAL STUDIO 2013\PROJECTS\SOKOBAN\SOKOBAN\DEBUG\STDAFX.OBJ
C:\USERS\Саша\DOCUMENTS\VISUAL STUDIO 2013\PROJECTS\SOKOBAN\DEBUG\SOKOBAN.ILK
C:\USERS\Саша\DOCUMENTS\VISUAL STUDIO 2013\PROJECTS\SOKOBAN\DEBUG\SOKOBAN.EXE
C:\USERS\САША\DOCUMENTS\VISUAL STUDIO 2013\PROJECTS\SOKOBAN\DEBUG\SOKOBAN.PDB
