^C:\USERS\САША\DOCUMENTS\VISUAL STUDIO 2013\PROJECTS\SOKOBAN\SOKOBAN\DEBUG\ACTOR.OBJ|C:\USERS\САША\DOCUMENTS\VISUAL STUDIO 2013\PROJECTS\SOKOBAN\SOKOBAN\DEBUG\BOX.OBJ|C:\USERS\САША\DOCUMENTS\VISUAL STUDIO 2013\PROJECTS\SOKOBAN\SOKOBAN\DEBUG\DOT.OBJ|C:\USERS\САША\DOCUMENTS\VISUAL STUDIO 2013\PROJECTS\SOKOBAN\SOKOBAN\DEBUG\GAME.OBJ|C:\USERS\САША\DOCUMENTS\VISUAL STUDIO 2013\PROJECTS\SOKOBAN\SOKOBAN\DEBUG\MATRIX.OBJ|C:\USERS\САША\DOCUMENTS\VISUAL STUDIO 2013\PROJECTS\SOKOBAN\SOKOBAN\DEBUG\PLAYER.OBJ|C:\USERS\САША\DOCUMENTS\VISUAL STUDIO 2013\PROJECTS\SOKOBAN\SOKOBAN\DEBUG\POINT.OBJ|C:\USERS\САША\DOCUMENTS\VISUAL STUDIO 2013\PROJECTS\SOKOBAN\SOKOBAN\DEBUG\SCENE.OBJ|C:\USERS\САША\DOCUMENTS\VISUAL STUDIO 2013\PROJECTS\SOKOBAN\SOKOBAN\DEBUG\SOKOBAN.OBJ|C:\USERS\САША\DOCUMENTS\VISUAL STUDIO 2013\PROJECTS\SOKOBAN\SOKOBAN\DEBUG\STDAFX.OBJ
C:\PROGRAM FILES (X86)\WINDOWS KITS\8.1\LIB\WINV6.3\UM\X86\KERNEL32.LIB
C:\PROGRAM FILES (X86)\WINDOWS KITS\8.1\LIB\WINV6.3\UM\X86\USER32.LIB
C:\PROGRAM FILES (X86)\WINDOWS KITS\8.1\LIB\WINV6.3\UM\X86\GDI32.LIB
C:\PROGRAM FILES (X86)\WINDOWS KITS\8.1\LIB\WINV6.3\UM\X86\WINSPOOL.LIB
C:\PROGRAM FILES (X86)\WINDOWS KITS\8.1\LIB\WINV6.3\UM\X86\COMDLG32.LIB
C:\PROGRAM FILES (X86)\WINDOWS KITS\8.1\LIB\WINV6.3\UM\X86\ADVAPI32.LIB
C:\PROGRAM FILES (X86)\WINDOWS KITS\8.1\LIB\WINV6.3\UM\X86\SHELL32.LIB
C:\PROGRAM FILES (X86)\WINDOWS KITS\8.1\LIB\WINV6.3\UM\X86\OLE32.LIB
C:\PROGRAM FILES (X86)\WINDOWS KITS\8.1\LIB\WINV6.3\UM\X86\OLEAUT32.LIB
C:\PROGRAM FILES (X86)\WINDOWS KITS\8.1\LIB\WINV6.3\UM\X86\UUID.LIB
C:\PROGRAM FILES (X86)\WINDOWS KITS\8.1\LIB\WINV6.3\UM\X86\ODBC32.LIB
C:\PROGRAM FILES (X86)\WINDOWS KITS\8.1\LIB\WINV6.3\UM\X86\ODBCCP32.LIB
C:\USERS\Саша\DOCUMENTS\VISUAL STUDIO 2013\PROJECTS\SOKOBAN\SOKOBAN\DEBUG\ACTOR.OBJ
C:\USERS\Саша\DOCUMENTS\VISUAL STUDIO 2013\PROJECTS\SOKOBAN\SOKOBAN\DEBUG\BOX.OBJ
C:\USERS\Саша\DOCUMENTS\VISUAL STUDIO 2013\PROJECTS\SOKOBAN\SOKOBAN\DEBUG\DOT.OBJ
C:\USERS\Саша\DOCUMENTS\VISUAL STUDIO 2013\PROJECTS\SOKOBAN\SOKOBAN\DEBUG\GAME.OBJ
C:\USERS\Саша\DOCUMENTS\VISUAL STUDIO 2013\PROJECTS\SOKOBAN\SOKOBAN\DEBUG\MATRIX.OBJ
C:\USERS\Саша\DOCUMENTS\VISUAL STUDIO 2013\PROJECTS\SOKOBAN\SOKOBAN\DEBUG\PLAYER.OBJ
C:\USERS\Саша\DOCUMENTS\VISUAL STUDIO 2013\PROJECTS\SOKOBAN\SOKOBAN\DEBUG\POINT.OBJ
C:\USERS\Саша\DOCUMENTS\VISUAL STUDIO 2013\PROJECTS\SOKOBAN\SOKOBAN\DEBUG\SCENE.OBJ
C:\USERS\Саша\DOCUMENTS\VISUAL STUDIO 2013\PROJECTS\SOKOBAN\SOKOBAN\DEBUG\SOKOBAN.OBJ
C:\USERS\Саша\DOCUMENTS\VISUAL STUDIO 2013\PROJECTS\SOKOBAN\SOKOBAN\DEBUG\STDAFX.OBJ
C:\WINDOWS\SYSTEM32\TZRES.DLL
C:\WINDOWS\GLOBALIZATION\SORTING\SORTDEFAULT.NLS
C:\PROGRAM FILES (X86)\MICROSOFT VISUAL STUDIO 12.0\VC\LIB\MSVCPRTD.LIB
C:\PROGRAM FILES (X86)\MICROSOFT VISUAL STUDIO 12.0\VC\LIB\MSVCRTD.LIB
C:\PROGRAM FILES (X86)\MICROSOFT VISUAL STUDIO 12.0\VC\LIB\OLDNAMES.LIB
C:\PROGRAM FILES (X86)\MICROSOFT VISUAL STUDIO 12.0\VC\BIN\LINK.EXE
C:\WINDOWS\SYSTEM32\RSAENH.DLL
C:\PROGRAM FILES (X86)\WINDOWS KITS\8.1\BIN\X86\RC.EXE
C:\PROGRAM FILES (X86)\MICROSOFT VISUAL STUDIO 12.0\VC\BIN\CVTRES.EXE
